{
  "name": "leofan-zeppelin_base",
  "version": "0.1.0",
  "author": "leofan",
  "summary": null,
  "license": "Apache 2.0",
  "source": "",
  "project_page": null,
  "issues_url": null,
  "dependencies": [
    {"version_requirement":">= 1.0.0","name":"puppetlabs-stdlib"}
  ]
}

